<?xml version="1.0" encoding="UTF-8"?>
<session version="1.0">
<refactoring accessors="true" comment="Delete element from project &apos;PruebaWeb&apos;&#x0D;&#x0A;- Original project: &apos;PruebaWeb&apos;&#x0D;&#x0A;- Original element: &apos;index.html&apos;" description="Delete element" element1="WebContent/index.html" elements="0" flags="589830" id="org.eclipse.jdt.ui.delete" resources="1" stamp="1571654297238" subPackages="false" version="1.0"/>
</session>