﻿id;articulo;cantidad_disponible;precio;minimo_disponible
1;Vino blanco;15;4,5;10
2;Vino tinto;23;3;15
3;Vino rosado;10;4;15
4;Vino crianza;15;7;10
5;Vino reserva;10;14;8
6;Café con leche;50;1;50
7;Café cortado;48;1;50
8;Café descafeinado;32;1;50
9;Café solo;9;1;50
10;Coca-cola;43;1;30
11;Schweppes Naranja;12;1;15
12;Kas Limon;18;1;15
13;Tónica;26;1;20
14;Nestea;12;1;10
15;Aquiarius;17;1;10
16;Vodka;5;2,5;5
17;Ginebra;4;2,5;5
18;Ron;8;2,75;5
19;Cerveza;46;1;40
20;Cerveza sin;21;1;20
